{
	"compilerOptions": {
		"baseUrl": ".",
		"paths": {
			"components/*": ["components/*"],
			"lib/*": ["lib/*"],
			"models/*": ["models/*"],
			"pages/*": ["pages/*"],
			"styles/*": ["styles/*"]
		}
	}
}